\relax 
\@nameuse{bbl@beforestart}
\catcode `"\active 
\catcode `<\active 
\catcode `>\active 
\@nameuse{es@quoting}
\citation{Evgeny}
\citation{Sanchez}
\citation{Souza}
\babel@aux{spanish}{}
\babel@aux{spanish}{}
\@writefile{toc}{\contentsline {section}{\numberline {1}Creación de Materiales Nuevos}{1}\protected@file@percent }
\@writefile{toc}{\contentsline {subsection}{\numberline {1.1}El Problema}{1}\protected@file@percent }
\@writefile{toc}{\contentsline {subsection}{\numberline {1.2}La Solución}{1}\protected@file@percent }
\@writefile{lof}{\contentsline {figure}{\numberline {1}{\ignorespaces La arquitectura de ORGANIC}}{2}\protected@file@percent }
\@writefile{toc}{\contentsline {section}{\numberline {2}Detección de Aritmias Cardiácas}{2}\protected@file@percent }
\@writefile{toc}{\contentsline {subsection}{\numberline {2.1}El Problema}{2}\protected@file@percent }
\@writefile{toc}{\contentsline {subsection}{\numberline {2.2}La Solución}{2}\protected@file@percent }
\citation{Liu}
\bibcite{Sanchez}{1}
\@writefile{toc}{\contentsline {section}{\numberline {3}Análisis de Secuencias de ADN}{3}\protected@file@percent }
\@writefile{toc}{\contentsline {subsection}{\numberline {3.1}El Problema}{3}\protected@file@percent }
\@writefile{toc}{\contentsline {subsection}{\numberline {3.2}La Solución}{3}\protected@file@percent }
\bibcite{Evgeny}{2}
\bibcite{Souza}{3}
\bibcite{Liu}{4}
\@writefile{lof}{\contentsline {figure}{\numberline {2}{\ignorespaces Principales componentes de los predictores computacionales basados en algoritmos de Aprendizaje automático para el análisis de secuencias Biológicas}}{4}\protected@file@percent }
