\relax 
\bibstyle{eurosis}
\providecommand \oddpage@label [2]{}
\@writefile{toc}{\contentsline {section}{INTRODUCTION}{1}\protected@file@percent }
\@writefile{toc}{\contentsline {subsection}{The Player vs. The Machine}{1}\protected@file@percent }
\@writefile{toc}{\contentsline {subsection}{AI Methods for NPC Design}{1}\protected@file@percent }
\@writefile{toc}{\contentsline {subsection}{Experimental Design}{1}\protected@file@percent }
\@writefile{toc}{\contentsline {subsection}{A Game Design Pattern}{2}\protected@file@percent }
\@writefile{toc}{\contentsline {subsection}{Paper Organization}{2}\protected@file@percent }
\@writefile{toc}{\contentsline {section}{INSANE-Q}{2}\protected@file@percent }
\@writefile{toc}{\contentsline {subsection}{A Starting Point}{2}\protected@file@percent }
\@writefile{toc}{\contentsline {subsection}{Q-Learning's Restrictions}{2}\protected@file@percent }
\@writefile{toc}{\contentsline {subsection}{Faster, Harder, Stronger}{2}\protected@file@percent }
\newlabel{insane-Q}{{1}{2}}
\@writefile{loa}{\contentsline {algocf}{\numberline {1}{\ignorespaces insane-Q}}{2}\protected@file@percent }
\@writefile{toc}{\contentsline {subsection}{Grooking insane-Q}{3}\protected@file@percent }
\@writefile{toc}{\contentsline {section}{THE PATTERN}{3}\protected@file@percent }
\@writefile{toc}{\contentsline {subsection}{Inspiration}{3}\protected@file@percent }
\@writefile{toc}{\contentsline {subsection}{Participants and Interfaces}{3}\protected@file@percent }
\@writefile{toc}{\contentsline {subsubsection}{State Sampler}{3}\protected@file@percent }
\@writefile{toc}{\contentsline {subsubsection}{Originality Kernel}{4}\protected@file@percent }
\@writefile{toc}{\contentsline {subsubsection}{Originality Engine}{4}\protected@file@percent }
\@writefile{toc}{\contentsline {subsubsection}{Swarm Intelligence}{4}\protected@file@percent }
\@writefile{toc}{\contentsline {subsubsection}{Swarm Individual}{4}\protected@file@percent }
\@writefile{toc}{\contentsline {subsection}{Core Algorithm}{4}\protected@file@percent }
\newlabel{CastDecision}{{2}{4}}
\@writefile{loa}{\contentsline {algocf}{\numberline {2}{\ignorespaces Swarming}}{4}\protected@file@percent }
\@writefile{toc}{\contentsline {subsection}{Sub-Sampling}{5}\protected@file@percent }
\@writefile{toc}{\contentsline {subsection}{Super-Sampling}{5}\protected@file@percent }
\@writefile{toc}{\contentsline {section}{A RACING MINI-GAME}{5}\protected@file@percent }
\@writefile{toc}{\contentsline {subsection}{Conceptualization}{5}\protected@file@percent }
\@writefile{toc}{\contentsline {subsection}{Praxis}{5}\protected@file@percent }
\@writefile{toc}{\contentsline {subsubsection}{The Pattern's Essential Elements}{5}\protected@file@percent }
\@writefile{toc}{\contentsline {subsubsection}{Quantized-Kernel States}{5}\protected@file@percent }
\newlabel{KernelizeDirection}{{3}{6}}
\@writefile{loa}{\contentsline {algocf}{\numberline {3}{\ignorespaces Kernelization of Carts' Directions}}{6}\protected@file@percent }
\newlabel{QuantizeKernelDirection}{{4}{6}}
\@writefile{loa}{\contentsline {algocf}{\numberline {4}{\ignorespaces Quantization of Carts' Kernelized Directions}}{6}\protected@file@percent }
\@writefile{toc}{\contentsline {subsubsection}{Action Transitions}{6}\protected@file@percent }
\@writefile{toc}{\contentsline {subsubsection}{Memory Requirements}{6}\protected@file@percent }
\@writefile{toc}{\contentsline {subsubsection}{Laps}{6}\protected@file@percent }
\@writefile{toc}{\contentsline {subsubsection}{The Reward Function}{6}\protected@file@percent }
\newlabel{CartsGetReward}{{5}{6}}
\@writefile{loa}{\contentsline {algocf}{\numberline {5}{\ignorespaces Cart's \texttt  {GetReward} Function}}{6}\protected@file@percent }
\@writefile{toc}{\contentsline {subsubsection}{The Rules of the Game}{6}\protected@file@percent }
\@writefile{toc}{\contentsline {subsubsection}{The Player's Interface}{7}\protected@file@percent }
\@writefile{toc}{\contentsline {subsubsection}{Greedy Carts}{7}\protected@file@percent }
\@writefile{toc}{\contentsline {subsection}{Training}{7}\protected@file@percent }
\@writefile{lof}{\contentsline {figure}{\numberline {1}{\ignorespaces Performance of different insane-Q applications.}}{7}\protected@file@percent }
\@writefile{toc}{\contentsline {subsection}{Iteration}{7}\protected@file@percent }
\@writefile{toc}{\contentsline {subsubsection}{A Dominant Strategy}{7}\protected@file@percent }
\@writefile{toc}{\contentsline {subsubsection}{Lazy Carts}{7}\protected@file@percent }
\@writefile{toc}{\contentsline {subsubsection}{Player Satisfaction}{7}\protected@file@percent }
\bibdata{refs}
\@writefile{toc}{\contentsline {section}{ADVICE}{8}\protected@file@percent }
\@writefile{toc}{\contentsline {section}{CONCLUSION}{8}\protected@file@percent }
\@writefile{toc}{\contentsline {section}{FUTURE RESEARCH}{8}\protected@file@percent }
