\relax 
\providecommand\hyper@newdestlabel[2]{}
\providecommand\HyperFirstAtBeginDocument{\AtBeginDocument}
\HyperFirstAtBeginDocument{\ifx\hyper@anchor\@undefined
\global\let\oldcontentsline\contentsline
\gdef\contentsline#1#2#3#4{\oldcontentsline{#1}{#2}{#3}}
\global\let\oldnewlabel\newlabel
\gdef\newlabel#1#2{\newlabelxx{#1}#2}
\gdef\newlabelxx#1#2#3#4#5#6{\oldnewlabel{#1}{{#2}{#3}}}
\AtEndDocument{\ifx\hyper@anchor\@undefined
\let\contentsline\oldcontentsline
\let\newlabel\oldnewlabel
\fi}
\fi}
\global\let\hyper@last\relax 
\gdef\HyperFirstAtBeginDocument#1{#1}
\providecommand\HyField@AuxAddToFields[1]{}
\providecommand\HyField@AuxAddToCoFields[2]{}
\providecommand \oddpage@label [2]{}
\@writefile{toc}{\contentsline {section}{Contents}{}{section*.1}\protected@file@percent }
\citation{Schell}
\citation{Koster}
\citation{Csikszentmihalyi}
\citation{Schell}
\citation{Zimmerman}
\citation{Zimmerman}
\citation{Millington}
\citation{Wilson}
\citation{Koster}
\citation{Sutton}
\@writefile{toc}{\contentsline {section}{\numberline {1}The Problem}{1}{section.1}\protected@file@percent }
\@writefile{toc}{\contentsline {subsection}{\numberline {1.1}The Magic Circle}{1}{subsection.1.1}\protected@file@percent }
\@writefile{lof}{\contentsline {figure}{\numberline {1}{\ignorespaces Games provide with a magic-circle where disbelief is suspended, but this suspension of disbelief is brittle, and the illusion of otherworldly play will vanish at the slightest provocation.\cite  {Zimmerman}}}{1}{figure.1}\protected@file@percent }
\citation{Wilson}
\citation{Sutton}
\citation{Millington}
\@writefile{toc}{\contentsline {subsection}{\numberline {1.2}Learning and Modeling Game AI}{2}{subsection.1.2}\protected@file@percent }
\citation{Novak}
\citation{Koster}
\@writefile{lof}{\contentsline {figure}{\numberline {2}{\ignorespaces Basic model of a game AI architecture.}}{3}{figure.2}\protected@file@percent }
\@writefile{toc}{\contentsline {subsection}{\numberline {1.3}Hovercraft, Flying Fairies, Swimming Monsters, and Other Free-Range Driving Gameplay Mechanics}{3}{subsection.1.3}\protected@file@percent }
\@writefile{lof}{\contentsline {figure}{\numberline {3}{\ignorespaces Hovercraft are en example of free-range driving agents.}}{4}{figure.3}\protected@file@percent }
\citation{Sutton}
\@writefile{toc}{\contentsline {section}{\numberline {2}The Goal}{5}{section.2}\protected@file@percent }
\@writefile{toc}{\contentsline {section}{\numberline {3}Preliminaries of a Solution}{5}{section.3}\protected@file@percent }
\citation{Millington}
\citation{Mnih}
\citation{Sethy}
\citation{Millington}
\citation{Sutton}
\citation{Sutton}
\citation{Sutton}
\@writefile{toc}{\contentsline {subsection}{\numberline {3.1}Q-Learning}{6}{subsection.3.1}\protected@file@percent }
\@writefile{toc}{\contentsline {subsubsection}{\numberline {3.1.1}Why Q-Learning?}{6}{subsubsection.3.1.1}\protected@file@percent }
\citation{Sutton}
\citation{Millington}
\citation{Sutton}
\@writefile{toc}{\contentsline {subsection}{\numberline {3.2}The Algorithm}{7}{subsection.3.2}\protected@file@percent }
\citation{Millington}
\citation{Millington}
\newlabel{QLearning}{{1}{8}{The Algorithm}{algocfline.1}{}}
\@writefile{loa}{\contentsline {algocf}{\numberline {1}{\ignorespaces Online, Sample-Based Q-Learning}}{8}{algocf.1}\protected@file@percent }
\@writefile{toc}{\contentsline {subsection}{\numberline {3.3}The Differences of our Q-Learning \emph  {(optional)}}{9}{subsection.3.3}\protected@file@percent }
\newlabel{q-learning-differences}{{3.3}{9}{The Differences of our Q-Learning \emph {(optional)}}{subsection.3.3}{}}
\citation{Millington}
\@writefile{lof}{\contentsline {figure}{\numberline {4}{\ignorespaces A preliminary view of the behavior of our agents.}}{10}{figure.4}\protected@file@percent }
\@writefile{toc}{\contentsline {subsection}{\numberline {3.4}The \textsl  {Unity Engine}}{10}{subsection.3.4}\protected@file@percent }
\citation{Gamma}
\@writefile{lof}{\contentsline {figure}{\numberline {5}{\ignorespaces A preliminary view of the behavior of our agents.}}{12}{figure.5}\protected@file@percent }
\newlabel{MonoBehavior}{{5}{12}{A preliminary view of the behavior of our agents}{figure.5}{}}
\@writefile{toc}{\contentsline {section}{\numberline {4}Our Analysis}{13}{section.4}\protected@file@percent }
\@writefile{lof}{\contentsline {figure}{\numberline {6}{\ignorespaces The problem's model.}}{13}{figure.6}\protected@file@percent }
\newlabel{problem-modeling}{{6}{13}{The problem's model}{figure.6}{}}
\citation{Jennett}
\citation{Jennett}
\@writefile{toc}{\contentsline {section}{\numberline {5}Our Meta-Design}{14}{section.5}\protected@file@percent }
\@writefile{lof}{\contentsline {figure}{\numberline {7}{\ignorespaces A description of the game's flux and the game/player interaction.\cite  {Jennett}}}{14}{figure.7}\protected@file@percent }
\newlabel{problem-analysis}{{7}{14}{A description of the game's flux and the game/player interaction.\cite {Jennett}}{figure.7}{}}
\@writefile{toc}{\contentsline {subsection}{\numberline {5.1}Tracer Bullet Process}{15}{subsection.5.1}\protected@file@percent }
\@writefile{lof}{\contentsline {figure}{\numberline {8}{\ignorespaces The preliminary analysis for our project for movement mechanics.}}{16}{figure.8}\protected@file@percent }
\@writefile{toc}{\contentsline {section}{\numberline {6}Our Design}{17}{section.6}\protected@file@percent }
\newlabel{our-design}{{6}{17}{Our Design}{section.6}{}}
\@writefile{toc}{\contentsline {subsection}{\numberline {6.1}\texttt  {QLearning}}{18}{subsection.6.1}\protected@file@percent }
\@writefile{lof}{\contentsline {figure}{\numberline {9}{\ignorespaces The design of QLearning}}{18}{figure.9}\protected@file@percent }
\newlabel{QLearning}{{9}{18}{The design of QLearning}{figure.9}{}}
\citation{Nystrom}
\@writefile{toc}{\contentsline {subsection}{\numberline {6.2}\texttt  {MovementQLearning}}{19}{subsection.6.2}\protected@file@percent }
\@writefile{lof}{\contentsline {figure}{\numberline {10}{\ignorespaces The design of MovementQLearning}}{20}{figure.10}\protected@file@percent }
\newlabel{MovementQLearning}{{10}{20}{The design of MovementQLearning}{figure.10}{}}
\@writefile{toc}{\contentsline {subsection}{\numberline {6.3}\texttt  {Destination}}{21}{subsection.6.3}\protected@file@percent }
\@writefile{lof}{\contentsline {figure}{\numberline {11}{\ignorespaces The design of Destination}}{21}{figure.11}\protected@file@percent }
\newlabel{destination}{{11}{21}{The design of Destination}{figure.11}{}}
\@writefile{toc}{\contentsline {subsection}{\numberline {6.4}\texttt  {TrackQLearning}}{21}{subsection.6.4}\protected@file@percent }
\@writefile{lof}{\contentsline {figure}{\numberline {12}{\ignorespaces The design of TrackQLearning}}{22}{figure.12}\protected@file@percent }
\newlabel{TrackQLearning}{{12}{22}{The design of TrackQLearning}{figure.12}{}}
\@writefile{lof}{\contentsline {figure}{\numberline {13}{\ignorespaces An intricate maze (from a conceptual point of view).}}{23}{figure.13}\protected@file@percent }
\newlabel{Maze}{{13}{23}{An intricate maze (from a conceptual point of view)}{figure.13}{}}
\@writefile{lof}{\contentsline {figure}{\numberline {14}{\ignorespaces Our Triangle racetrack, which will be featured in the racing game.}}{24}{figure.14}\protected@file@percent }
\newlabel{Triangle}{{14}{24}{Our Triangle racetrack, which will be featured in the racing game}{figure.14}{}}
\@writefile{toc}{\contentsline {subsection}{\numberline {6.5}Carts}{24}{subsection.6.5}\protected@file@percent }
\@writefile{toc}{\contentsline {subsection}{\numberline {6.6}\texttt  {Cart}}{25}{subsection.6.6}\protected@file@percent }
\@writefile{lof}{\contentsline {figure}{\numberline {15}{\ignorespaces UML: \texttt  {Cart}}}{25}{figure.15}\protected@file@percent }
\newlabel{Cart}{{15}{25}{UML: \code {Cart}}{figure.15}{}}
\@writefile{lof}{\contentsline {figure}{\numberline {16}{\ignorespaces UML: \texttt  {Cart} State Machine}}{26}{figure.16}\protected@file@percent }
\newlabel{CartStateMachine}{{16}{26}{UML: \code {Cart} State Machine}{figure.16}{}}
\@writefile{toc}{\contentsline {subsection}{\numberline {6.7}\texttt  {CartState}}{26}{subsection.6.7}\protected@file@percent }
\newlabel{cart-state}{{6.7}{26}{\code {CartState}}{subsection.6.7}{}}
\@writefile{lof}{\contentsline {figure}{\numberline {17}{\ignorespaces UML: \texttt  {Cart} State Machine}}{26}{figure.17}\protected@file@percent }
\newlabel{CartState}{{17}{26}{UML: \code {Cart} State Machine}{figure.17}{}}
\@writefile{toc}{\contentsline {subsection}{\numberline {6.8}\texttt  {AmbientStateSampler}}{27}{subsection.6.8}\protected@file@percent }
\@writefile{lof}{\contentsline {figure}{\numberline {18}{\ignorespaces UML: \texttt  {AmbientStateSampler}}}{28}{figure.18}\protected@file@percent }
\newlabel{AmbientStateSampler}{{18}{28}{UML: \code {AmbientStateSampler}}{figure.18}{}}
\@writefile{lof}{\contentsline {figure}{\numberline {19}{\ignorespaces UML: \texttt  {AmbientStateSampler.FixedUpdate()}}}{28}{figure.19}\protected@file@percent }
\newlabel{AmbientStateSampler.FixedUpdate}{{19}{28}{UML: \code {AmbientStateSampler.FixedUpdate()}}{figure.19}{}}
\@writefile{lof}{\contentsline {figure}{\numberline {20}{\ignorespaces UML: \texttt  {AmbientStateSampler.GetState()}}}{29}{figure.20}\protected@file@percent }
\newlabel{AmbientStateSampler.GetState}{{20}{29}{UML: \code {AmbientStateSampler.GetState()}}{figure.20}{}}
\@writefile{lof}{\contentsline {figure}{\numberline {21}{\ignorespaces Each cart casts rays that surround it to query whether an obstacle is nearby. These are the green rays in the figure. The yellow rays in the figure are the direction of the spheres cast towards the \texttt  {TargetDestination}.}}{29}{figure.21}\protected@file@percent }
\newlabel{CartRays}{{21}{29}{Each cart casts rays that surround it to query whether an obstacle is nearby. These are the green rays in the figure. The yellow rays in the figure are the direction of the spheres cast towards the \code {TargetDestination}}{figure.21}{}}
\@writefile{toc}{\contentsline {subsection}{\numberline {6.9}\texttt  {QLearnedManipulator}}{29}{subsection.6.9}\protected@file@percent }
\@writefile{lof}{\contentsline {figure}{\numberline {22}{\ignorespaces UML: \texttt  {QLearnedManipulator} Class Diagram}}{30}{figure.22}\protected@file@percent }
\newlabel{QLearnedManipulator}{{22}{30}{UML: \code {QLearnedManipulator} Class Diagram}{figure.22}{}}
\@writefile{lof}{\contentsline {figure}{\numberline {23}{\ignorespaces UML: \texttt  {QLearnedManipulator.FixedUpdate()} Activity Diagram}}{31}{figure.23}\protected@file@percent }
\newlabel{QLearnedManipulator.FixedUpdate}{{23}{31}{UML: \code {QLearnedManipulator.FixedUpdate()} Activity Diagram}{figure.23}{}}
\@writefile{lof}{\contentsline {figure}{\numberline {24}{\ignorespaces UML: \texttt  {QLearnedManipulator.TakeNewSteeringDirection()} Sequence Diagram}}{31}{figure.24}\protected@file@percent }
\newlabel{QLearnedManipulator.TakeNewSteeringDirection}{{24}{31}{UML: \code {QLearnedManipulator.TakeNewSteeringDirection()} Sequence Diagram}{figure.24}{}}
\@writefile{lof}{\contentsline {figure}{\numberline {25}{\ignorespaces UML: \texttt  {QLearnedManipulator.OnTriggerEnter(Collider)} Sequence Diagram}}{32}{figure.25}\protected@file@percent }
\newlabel{QLearnedManipulator.OnTriggerEnter}{{25}{32}{UML: \code {QLearnedManipulator.OnTriggerEnter(Collider)} Sequence Diagram}{figure.25}{}}
\@writefile{toc}{\contentsline {section}{\numberline {7}Results}{32}{section.7}\protected@file@percent }
\newlabel{results}{{7}{32}{Results}{section.7}{}}
\@writefile{toc}{\contentsline {subsection}{\numberline {7.1}Empirical Results}{32}{subsection.7.1}\protected@file@percent }
\@writefile{toc}{\contentsline {subsection}{\numberline {7.2}The Game}{32}{subsection.7.2}\protected@file@percent }
\@writefile{toc}{\contentsline {subsubsection}{\numberline {7.2.1}A Game for Everyone}{33}{subsubsection.7.2.1}\protected@file@percent }
\@writefile{lof}{\contentsline {figure}{\numberline {26}{\ignorespaces A shot in the middle of the race game. As you can see, we haven't defeated the computer in this run. Yet.}}{33}{figure.26}\protected@file@percent }
\citation{Schell}
\@writefile{toc}{\contentsline {subsubsection}{\numberline {7.2.2}A Game for Game Designers}{34}{subsubsection.7.2.2}\protected@file@percent }
\@writefile{toc}{\contentsline {section}{\numberline {8}Conclusion}{35}{section.8}\protected@file@percent }
\@writefile{toc}{\contentsline {subsection}{\numberline {8.1}The Promise of Reinforcement Learning}{35}{subsection.8.1}\protected@file@percent }
\@writefile{lof}{\contentsline {figure}{\numberline {27}{\ignorespaces A preview of all the carts sampling the information with their rays.}}{36}{figure.27}\protected@file@percent }
\@writefile{lof}{\contentsline {figure}{\numberline {28}{\ignorespaces A chart depicting the essential process of reinforcement learning.}}{36}{figure.28}\protected@file@percent }
\bibcite{Millington}{1}
\bibcite{Sutton}{2}
\bibcite{Schell}{3}
\bibcite{Koster}{4}
\bibcite{Novak}{5}
\bibcite{Csikszentmihalyi}{6}
\bibcite{Zimmerman}{7}
\bibcite{Wilson}{8}
\bibcite{Harari}{9}
\bibcite{Gamma}{10}
\bibcite{Nystrom}{11}
\bibcite{Mnih}{12}
\@writefile{toc}{\contentsline {section}{References}{37}{section*.2}\protected@file@percent }
\bibcite{Sethy}{13}
\bibcite{Bowling}{14}
\bibcite{Jennett}{15}
