\relax 
\providecommand\hyper@newdestlabel[2]{}
\providecommand\HyperFirstAtBeginDocument{\AtBeginDocument}
\HyperFirstAtBeginDocument{\ifx\hyper@anchor\@undefined
\global\let\oldcontentsline\contentsline
\gdef\contentsline#1#2#3#4{\oldcontentsline{#1}{#2}{#3}}
\global\let\oldnewlabel\newlabel
\gdef\newlabel#1#2{\newlabelxx{#1}#2}
\gdef\newlabelxx#1#2#3#4#5#6{\oldnewlabel{#1}{{#2}{#3}}}
\AtEndDocument{\ifx\hyper@anchor\@undefined
\let\contentsline\oldcontentsline
\let\newlabel\oldnewlabel
\fi}
\fi}
\global\let\hyper@last\relax 
\gdef\HyperFirstAtBeginDocument#1{#1}
\providecommand\HyField@AuxAddToFields[1]{}
\providecommand\HyField@AuxAddToCoFields[2]{}
\providecommand \oddpage@label [2]{}
\@writefile{toc}{\contentsline {section}{Contents}{}{section*.1}\protected@file@percent }
\citation{Schell}
\citation{Koster}
\citation{Csikszentmihalyi}
\citation{Schell}
\citation{Zimmerman}
\citation{Zimmerman}
\citation{Millington}
\citation{Wilson}
\citation{Koster}
\citation{Sutton}
\@writefile{toc}{\contentsline {section}{\numberline {1}The Problem}{1}{section.1}\protected@file@percent }
\@writefile{toc}{\contentsline {subsection}{\numberline {1.1}The Magic Circle}{1}{subsection.1.1}\protected@file@percent }
\@writefile{lof}{\contentsline {figure}{\numberline {1}{\ignorespaces Games provide with a magic-circle where disbelief is suspended, but this suspension of disbelief is brittle, and the illusion of otherworldly play will vanish at the slightest provocation.\cite  {Zimmerman}}}{1}{figure.1}\protected@file@percent }
\citation{Wilson}
\citation{Sutton}
\citation{Millington}
\@writefile{toc}{\contentsline {subsection}{\numberline {1.2}Learning and Modeling Game AI}{2}{subsection.1.2}\protected@file@percent }
\citation{Novak}
\citation{Koster}
\@writefile{lof}{\contentsline {figure}{\numberline {2}{\ignorespaces Basic model of a game AI architecture.}}{3}{figure.2}\protected@file@percent }
\@writefile{toc}{\contentsline {subsection}{\numberline {1.3}Hovercraft, Flying Fairies, Swimming Monsters, and Other Free-Range Driving Gameplay Mechanics}{3}{subsection.1.3}\protected@file@percent }
\@writefile{lof}{\contentsline {figure}{\numberline {3}{\ignorespaces Hovercraft are en example of free-range driving agents.}}{4}{figure.3}\protected@file@percent }
\citation{Sutton}
\@writefile{toc}{\contentsline {section}{\numberline {2}The Goal}{5}{section.2}\protected@file@percent }
\@writefile{toc}{\contentsline {section}{\numberline {3}Preliminaries of a Solution}{5}{section.3}\protected@file@percent }
\citation{Millington}
\citation{Mnih}
\citation{Sethy}
\citation{Millington}
\citation{Sutton}
\citation{Sutton}
\citation{Sutton}
\@writefile{toc}{\contentsline {subsection}{\numberline {3.1}Q-Learning}{6}{subsection.3.1}\protected@file@percent }
\@writefile{toc}{\contentsline {subsubsection}{\numberline {3.1.1}Why Q-Learning?}{6}{subsubsection.3.1.1}\protected@file@percent }
\citation{Sutton}
\citation{Millington}
\citation{Sutton}
\@writefile{toc}{\contentsline {subsection}{\numberline {3.2}The Algorithm}{7}{subsection.3.2}\protected@file@percent }
\newlabel{QLearning}{{1}{8}{The Algorithm}{algocfline.1}{}}
\@writefile{loa}{\contentsline {algocf}{\numberline {1}{\ignorespaces insane-Q}}{8}{algocf.1}\protected@file@percent }
\citation{Millington}
\citation{Millington}
\newlabel{CastDecision}{{2}{9}{The Algorithm}{algocfline.2}{}}
\@writefile{loa}{\contentsline {algocf}{\numberline {2}{\ignorespaces Swarming}}{9}{algocf.2}\protected@file@percent }
\@writefile{toc}{\contentsline {subsection}{\numberline {3.3}The Differences of our Q-Learning \emph  {(optional)}}{10}{subsection.3.3}\protected@file@percent }
\newlabel{q-learning-differences}{{3.3}{10}{The Differences of our Q-Learning \emph {(optional)}}{subsection.3.3}{}}
\citation{Millington}
\@writefile{lof}{\contentsline {figure}{\numberline {4}{\ignorespaces A preliminary view of the behavior of our agents.}}{11}{figure.4}\protected@file@percent }
\@writefile{toc}{\contentsline {subsection}{\numberline {3.4}The \textsl  {Unity Engine}}{11}{subsection.3.4}\protected@file@percent }
\citation{Gamma}
\@writefile{lof}{\contentsline {figure}{\numberline {5}{\ignorespaces A preliminary view of the behavior of our agents.}}{13}{figure.5}\protected@file@percent }
\newlabel{MonoBehavior}{{5}{13}{A preliminary view of the behavior of our agents}{figure.5}{}}
\@writefile{toc}{\contentsline {section}{\numberline {4}Our Analysis}{14}{section.4}\protected@file@percent }
\@writefile{toc}{\contentsline {subsection}{\numberline {4.1}Use Cases}{14}{subsection.4.1}\protected@file@percent }
\@writefile{lof}{\contentsline {figure}{\numberline {6}{\ignorespaces UML: Use cases offered by our system.}}{14}{figure.6}\protected@file@percent }
\newlabel{use-cases}{{6}{14}{UML: Use cases offered by our system}{figure.6}{}}
\@writefile{lof}{\contentsline {figure}{\numberline {7}{\ignorespaces The main menu for the program, showcasing the three main use-cases of the system.}}{15}{figure.7}\protected@file@percent }
\@writefile{toc}{\contentsline {subsubsection}{\numberline {4.1.1}Scenario: \texttt  {View Mode::Start from Scratch}}{15}{subsubsection.4.1.1}\protected@file@percent }
\@writefile{lof}{\contentsline {figure}{\numberline {8}{\ignorespaces Activity diagram for \texttt  {View Mode::Start from Scratch}.}}{15}{figure.8}\protected@file@percent }
\@writefile{toc}{\contentsline {subsubsection}{\numberline {4.1.2}Scenario: \texttt  {View Mode::Pre-Load Q-Values}}{16}{subsubsection.4.1.2}\protected@file@percent }
\@writefile{lof}{\contentsline {figure}{\numberline {9}{\ignorespaces Activity diagram for \texttt  {View Mode::Pre-Load Q-Values}.}}{16}{figure.9}\protected@file@percent }
\@writefile{toc}{\contentsline {subsubsection}{\numberline {4.1.3}Scenario: \texttt  {Race-Game} to Completion}{16}{subsubsection.4.1.3}\protected@file@percent }
\@writefile{lof}{\contentsline {figure}{\numberline {10}{\ignorespaces Activity diagram for \texttt  {Race Mode} to Completion.}}{17}{figure.10}\protected@file@percent }
\newlabel{RaceGameToCompletion}{{10}{17}{Activity diagram for \code {Race Mode} to Completion}{figure.10}{}}
\@writefile{toc}{\contentsline {subsection}{\numberline {4.2}Modeling the Agents}{18}{subsection.4.2}\protected@file@percent }
\@writefile{lof}{\contentsline {figure}{\numberline {11}{\ignorespaces The problem's model.}}{18}{figure.11}\protected@file@percent }
\newlabel{problem-modeling}{{11}{18}{The problem's model}{figure.11}{}}
\citation{Jennett}
\citation{Jennett}
\@writefile{toc}{\contentsline {section}{\numberline {5}Our Meta-Design}{19}{section.5}\protected@file@percent }
\@writefile{lof}{\contentsline {figure}{\numberline {12}{\ignorespaces A description of the game's flux and the game/player interaction.\cite  {Jennett}}}{19}{figure.12}\protected@file@percent }
\newlabel{problem-analysis}{{12}{19}{A description of the game's flux and the game/player interaction.\cite {Jennett}}{figure.12}{}}
\@writefile{toc}{\contentsline {subsection}{\numberline {5.1}Tracer Bullet Process}{20}{subsection.5.1}\protected@file@percent }
\@writefile{lof}{\contentsline {figure}{\numberline {13}{\ignorespaces The preliminary analysis for our project for movement mechanics.}}{21}{figure.13}\protected@file@percent }
\@writefile{toc}{\contentsline {section}{\numberline {6}Our Design}{22}{section.6}\protected@file@percent }
\newlabel{our-design}{{6}{22}{Our Design}{section.6}{}}
\@writefile{toc}{\contentsline {subsection}{\numberline {6.1}\texttt  {QLearning}}{23}{subsection.6.1}\protected@file@percent }
\@writefile{lof}{\contentsline {figure}{\numberline {14}{\ignorespaces The design of QLearning}}{23}{figure.14}\protected@file@percent }
\newlabel{QLearning}{{14}{23}{The design of QLearning}{figure.14}{}}
\citation{Nystrom}
\@writefile{toc}{\contentsline {subsection}{\numberline {6.2}\texttt  {MovementQLearning}}{24}{subsection.6.2}\protected@file@percent }
\@writefile{lof}{\contentsline {figure}{\numberline {15}{\ignorespaces The design of MovementQLearning}}{25}{figure.15}\protected@file@percent }
\newlabel{MovementQLearning}{{15}{25}{The design of MovementQLearning}{figure.15}{}}
\@writefile{toc}{\contentsline {subsection}{\numberline {6.3}\texttt  {Destination}}{26}{subsection.6.3}\protected@file@percent }
\@writefile{lof}{\contentsline {figure}{\numberline {16}{\ignorespaces The design of Destination}}{26}{figure.16}\protected@file@percent }
\newlabel{destination}{{16}{26}{The design of Destination}{figure.16}{}}
\@writefile{toc}{\contentsline {subsection}{\numberline {6.4}\texttt  {TrackQLearning}}{26}{subsection.6.4}\protected@file@percent }
\@writefile{lof}{\contentsline {figure}{\numberline {17}{\ignorespaces The design of TrackQLearning}}{27}{figure.17}\protected@file@percent }
\newlabel{TrackQLearning}{{17}{27}{The design of TrackQLearning}{figure.17}{}}
\@writefile{lof}{\contentsline {figure}{\numberline {18}{\ignorespaces An intricate maze (from a conceptual point of view).}}{28}{figure.18}\protected@file@percent }
\newlabel{Maze}{{18}{28}{An intricate maze (from a conceptual point of view)}{figure.18}{}}
\@writefile{lof}{\contentsline {figure}{\numberline {19}{\ignorespaces Our Triangle racetrack, which will be featured in the racing game.}}{28}{figure.19}\protected@file@percent }
\newlabel{Triangle}{{19}{28}{Our Triangle racetrack, which will be featured in the racing game}{figure.19}{}}
\@writefile{toc}{\contentsline {subsection}{\numberline {6.5}Carts}{29}{subsection.6.5}\protected@file@percent }
\@writefile{toc}{\contentsline {subsection}{\numberline {6.6}\texttt  {Cart}}{29}{subsection.6.6}\protected@file@percent }
\@writefile{lof}{\contentsline {figure}{\numberline {20}{\ignorespaces UML: \texttt  {Cart}}}{30}{figure.20}\protected@file@percent }
\newlabel{Cart}{{20}{30}{UML: \code {Cart}}{figure.20}{}}
\@writefile{lof}{\contentsline {figure}{\numberline {21}{\ignorespaces UML: \texttt  {Cart} State Machine}}{30}{figure.21}\protected@file@percent }
\newlabel{CartStateMachine}{{21}{30}{UML: \code {Cart} State Machine}{figure.21}{}}
\@writefile{toc}{\contentsline {subsection}{\numberline {6.7}\texttt  {CartState}}{30}{subsection.6.7}\protected@file@percent }
\newlabel{cart-state}{{6.7}{30}{\code {CartState}}{subsection.6.7}{}}
\@writefile{lof}{\contentsline {figure}{\numberline {22}{\ignorespaces UML: \texttt  {Cart} State Machine}}{31}{figure.22}\protected@file@percent }
\newlabel{CartState}{{22}{31}{UML: \code {Cart} State Machine}{figure.22}{}}
\@writefile{toc}{\contentsline {subsection}{\numberline {6.8}\texttt  {AmbientStateSampler}}{32}{subsection.6.8}\protected@file@percent }
\@writefile{lof}{\contentsline {figure}{\numberline {23}{\ignorespaces UML: \texttt  {AmbientStateSampler}}}{32}{figure.23}\protected@file@percent }
\newlabel{AmbientStateSampler}{{23}{32}{UML: \code {AmbientStateSampler}}{figure.23}{}}
\@writefile{lof}{\contentsline {figure}{\numberline {24}{\ignorespaces UML: \texttt  {AmbientStateSampler.FixedUpdate()}}}{33}{figure.24}\protected@file@percent }
\newlabel{AmbientStateSampler.FixedUpdate}{{24}{33}{UML: \code {AmbientStateSampler.FixedUpdate()}}{figure.24}{}}
\@writefile{lof}{\contentsline {figure}{\numberline {25}{\ignorespaces UML: \texttt  {AmbientStateSampler.GetState()}}}{33}{figure.25}\protected@file@percent }
\newlabel{AmbientStateSampler.GetState}{{25}{33}{UML: \code {AmbientStateSampler.GetState()}}{figure.25}{}}
\@writefile{lof}{\contentsline {figure}{\numberline {26}{\ignorespaces Each cart casts rays that surround it to query whether an obstacle is nearby. These are the green rays in the figure. The yellow rays in the figure are the direction of the spheres cast towards the \texttt  {TargetDestination}.}}{33}{figure.26}\protected@file@percent }
\newlabel{CartRays}{{26}{33}{Each cart casts rays that surround it to query whether an obstacle is nearby. These are the green rays in the figure. The yellow rays in the figure are the direction of the spheres cast towards the \code {TargetDestination}}{figure.26}{}}
\@writefile{toc}{\contentsline {subsection}{\numberline {6.9}\texttt  {QLearnedManipulator}}{34}{subsection.6.9}\protected@file@percent }
\@writefile{lof}{\contentsline {figure}{\numberline {27}{\ignorespaces UML: \texttt  {QLearnedManipulator} Class Diagram}}{34}{figure.27}\protected@file@percent }
\newlabel{QLearnedManipulator}{{27}{34}{UML: \code {QLearnedManipulator} Class Diagram}{figure.27}{}}
\@writefile{lof}{\contentsline {figure}{\numberline {28}{\ignorespaces UML: \texttt  {QLearnedManipulator.FixedUpdate()} Activity Diagram}}{35}{figure.28}\protected@file@percent }
\newlabel{QLearnedManipulator.FixedUpdate}{{28}{35}{UML: \code {QLearnedManipulator.FixedUpdate()} Activity Diagram}{figure.28}{}}
\@writefile{lof}{\contentsline {figure}{\numberline {29}{\ignorespaces UML: \texttt  {QLearnedManipulator.TakeNewSteeringDirection()} Sequence Diagram}}{35}{figure.29}\protected@file@percent }
\newlabel{QLearnedManipulator.TakeNewSteeringDirection}{{29}{35}{UML: \code {QLearnedManipulator.TakeNewSteeringDirection()} Sequence Diagram}{figure.29}{}}
\citation{Millington}
\citation{Millington}
\@writefile{lof}{\contentsline {figure}{\numberline {30}{\ignorespaces UML: \texttt  {QLearnedManipulator.OnTriggerEnter(Collider)} Sequence Diagram}}{36}{figure.30}\protected@file@percent }
\newlabel{QLearnedManipulator.OnTriggerEnter}{{30}{36}{UML: \code {QLearnedManipulator.OnTriggerEnter(Collider)} Sequence Diagram}{figure.30}{}}
\@writefile{toc}{\contentsline {section}{\numberline {7}Implementation Models}{36}{section.7}\protected@file@percent }
\newlabel{Implementation}{{7}{36}{Implementation Models}{section.7}{}}
\@writefile{toc}{\contentsline {section}{\numberline {8}Results}{37}{section.8}\protected@file@percent }
\newlabel{results}{{8}{37}{Results}{section.8}{}}
\@writefile{toc}{\contentsline {subsection}{\numberline {8.1}Empirical Results}{37}{subsection.8.1}\protected@file@percent }
\@writefile{lof}{\contentsline {figure}{\numberline {31}{\ignorespaces Difference in performance between no Q-Learning, sub-sampling, and super-sampling.}}{37}{figure.31}\protected@file@percent }
\newlabel{metrics}{{31}{37}{Difference in performance between no Q-Learning, sub-sampling, and super-sampling}{figure.31}{}}
\@writefile{toc}{\contentsline {subsection}{\numberline {8.2}The Game}{37}{subsection.8.2}\protected@file@percent }
\@writefile{toc}{\contentsline {subsubsection}{\numberline {8.2.1}A Game for Everyone}{37}{subsubsection.8.2.1}\protected@file@percent }
\@writefile{lof}{\contentsline {figure}{\numberline {32}{\ignorespaces A shot in the middle of the race game. As you can see, we haven't defeated the computer in this run. Yet.}}{38}{figure.32}\protected@file@percent }
\citation{Schell}
\@writefile{toc}{\contentsline {subsubsection}{\numberline {8.2.2}A Game for Game Designers}{39}{subsubsection.8.2.2}\protected@file@percent }
\@writefile{toc}{\contentsline {section}{\numberline {9}Impact}{40}{section.9}\protected@file@percent }
\@writefile{toc}{\contentsline {section}{\numberline {10}Conclusion}{40}{section.10}\protected@file@percent }
\@writefile{toc}{\contentsline {subsection}{\numberline {10.1}The Promise of Reinforcement Learning}{40}{subsection.10.1}\protected@file@percent }
\@writefile{lof}{\contentsline {figure}{\numberline {33}{\ignorespaces A preview of all the carts sampling the information with their rays.}}{41}{figure.33}\protected@file@percent }
\bibcite{Millington}{1}
\bibcite{Sutton}{2}
\bibcite{Schell}{3}
\bibcite{Koster}{4}
\bibcite{Novak}{5}
\bibcite{Csikszentmihalyi}{6}
\@writefile{lof}{\contentsline {figure}{\numberline {34}{\ignorespaces A chart depicting the essential process of reinforcement learning.}}{42}{figure.34}\protected@file@percent }
\@writefile{toc}{\contentsline {section}{References}{42}{section*.2}\protected@file@percent }
\bibcite{Zimmerman}{7}
\bibcite{Wilson}{8}
\bibcite{Harari}{9}
\bibcite{Gamma}{10}
\bibcite{Nystrom}{11}
\bibcite{Mnih}{12}
\bibcite{Sethy}{13}
\bibcite{Bowling}{14}
\bibcite{Jennett}{15}
