\relax 
\providecommand\hyper@newdestlabel[2]{}
\providecommand\HyperFirstAtBeginDocument{\AtBeginDocument}
\HyperFirstAtBeginDocument{\ifx\hyper@anchor\@undefined
\global\let\oldcontentsline\contentsline
\gdef\contentsline#1#2#3#4{\oldcontentsline{#1}{#2}{#3}}
\global\let\oldnewlabel\newlabel
\gdef\newlabel#1#2{\newlabelxx{#1}#2}
\gdef\newlabelxx#1#2#3#4#5#6{\oldnewlabel{#1}{{#2}{#3}}}
\AtEndDocument{\ifx\hyper@anchor\@undefined
\let\contentsline\oldcontentsline
\let\newlabel\oldnewlabel
\fi}
\fi}
\global\let\hyper@last\relax 
\gdef\HyperFirstAtBeginDocument#1{#1}
\providecommand\HyField@AuxAddToFields[1]{}
\providecommand\HyField@AuxAddToCoFields[2]{}
\providecommand \oddpage@label [2]{}
\citation{Schell}
\citation{Koster}
\citation{Csikszentmihalyi}
\citation{Schell}
\citation{Zimmerman}
\citation{Zimmerman}
\citation{Millington}
\citation{Wilson}
\citation{Koster}
\citation{Sutton}
\@writefile{toc}{\contentsline {section}{\numberline {1}The Problem}{1}{section.1}\protected@file@percent }
\@writefile{toc}{\contentsline {subsection}{\numberline {1.1}The Magic Circle}{1}{subsection.1.1}\protected@file@percent }
\@writefile{lof}{\contentsline {figure}{\numberline {1}{\ignorespaces Games provide with a magic-circle where disbelief is suspended, but this suspension of disbelief is brittle, and the illusion of otherworldly play will vanish at the slightest provocation.\cite  {Zimmerman}}}{1}{figure.1}\protected@file@percent }
\citation{Wilson}
\citation{Sutton}
\citation{Millington}
\@writefile{toc}{\contentsline {subsection}{\numberline {1.2}Learning and Modeling Game AI}{2}{subsection.1.2}\protected@file@percent }
\citation{Novak}
\citation{Koster}
\@writefile{lof}{\contentsline {figure}{\numberline {2}{\ignorespaces Basic model of a game AI architecture.}}{3}{figure.2}\protected@file@percent }
\@writefile{toc}{\contentsline {subsection}{\numberline {1.3}Hovercraft, Flying Fairies, Swimming Monsters, and Other Free-Range Driving Gameplay Mechanics}{3}{subsection.1.3}\protected@file@percent }
\@writefile{lof}{\contentsline {figure}{\numberline {3}{\ignorespaces Hovercraft are en example of free-range driving agents.}}{4}{figure.3}\protected@file@percent }
\citation{Sutton}
\citation{Millington}
\citation{Mnih}
\citation{Sethy}
\@writefile{toc}{\contentsline {section}{\numberline {2}The Goal}{5}{section.2}\protected@file@percent }
\@writefile{toc}{\contentsline {section}{\numberline {3}Preliminaries of a Solution}{5}{section.3}\protected@file@percent }
\citation{Millington}
\citation{Sutton}
\citation{Sutton}
\citation{Sutton}
\citation{Millington}
\@writefile{toc}{\contentsline {subsection}{\numberline {3.1}Q-Learning}{6}{subsection.3.1}\protected@file@percent }
\citation{Millington}
\citation{Millington}
\newlabel{QLearning}{{1}{7}{Q-Learning}{algocfline.1}{}}
\@writefile{loa}{\contentsline {algocf}{\numberline {1}{\ignorespaces Online, Sample-Based Q-Learning}}{7}{algocf.1}\protected@file@percent }
\citation{Gamma}
\@writefile{toc}{\contentsline {subsection}{\numberline {3.2}The \textsl  {Unity Engine}}{8}{subsection.3.2}\protected@file@percent }
\@writefile{lof}{\contentsline {figure}{\numberline {4}{\ignorespaces \texttt  {MonoBehavior}'s execution cycle.}}{9}{figure.4}\protected@file@percent }
\newlabel{MonoBehavior}{{4}{9}{\code {MonoBehavior}'s execution cycle}{figure.4}{}}
\@writefile{toc}{\contentsline {section}{\numberline {4}Our Design}{10}{section.4}\protected@file@percent }
\@writefile{toc}{\contentsline {subsection}{\numberline {4.1}Use Cases}{11}{subsection.4.1}\protected@file@percent }
\@writefile{lof}{\contentsline {figure}{\numberline {5}{\ignorespaces UML: Use cases offered by our system.}}{11}{figure.5}\protected@file@percent }
\newlabel{use-cases}{{5}{11}{UML: Use cases offered by our system}{figure.5}{}}
\@writefile{toc}{\contentsline {subsection}{\numberline {4.2}\texttt  {QLearning}}{12}{subsection.4.2}\protected@file@percent }
\@writefile{lof}{\contentsline {figure}{\numberline {6}{\ignorespaces The design of QLearning}}{12}{figure.6}\protected@file@percent }
\newlabel{QLearning}{{6}{12}{The design of QLearning}{figure.6}{}}
\@writefile{toc}{\contentsline {subsection}{\numberline {4.3}\texttt  {MovementQLearning}}{13}{subsection.4.3}\protected@file@percent }
\@writefile{lof}{\contentsline {figure}{\numberline {7}{\ignorespaces The design of MovementQLearning}}{13}{figure.7}\protected@file@percent }
\newlabel{MovementQLearning}{{7}{13}{The design of MovementQLearning}{figure.7}{}}
\citation{Nystrom}
\@writefile{toc}{\contentsline {subsection}{\numberline {4.4}\texttt  {TrackQLearning}}{14}{subsection.4.4}\protected@file@percent }
\@writefile{lof}{\contentsline {figure}{\numberline {8}{\ignorespaces The design of TrackQLearning}}{15}{figure.8}\protected@file@percent }
\newlabel{TrackQLearning}{{8}{15}{The design of TrackQLearning}{figure.8}{}}
\@writefile{lof}{\contentsline {figure}{\numberline {9}{\ignorespaces An intricate maze (from a conceptual point of view).}}{16}{figure.9}\protected@file@percent }
\newlabel{Maze}{{9}{16}{An intricate maze (from a conceptual point of view)}{figure.9}{}}
\@writefile{lof}{\contentsline {figure}{\numberline {10}{\ignorespaces Our Triangle racetrack, which will be featured in the racing game.}}{16}{figure.10}\protected@file@percent }
\newlabel{Triangle}{{10}{16}{Our Triangle racetrack, which will be featured in the racing game}{figure.10}{}}
\@writefile{toc}{\contentsline {subsection}{\numberline {4.5}Carts}{17}{subsection.4.5}\protected@file@percent }
\@writefile{toc}{\contentsline {subsection}{\numberline {4.6}\texttt  {Cart}}{17}{subsection.4.6}\protected@file@percent }
\@writefile{lof}{\contentsline {figure}{\numberline {11}{\ignorespaces UML: \texttt  {Cart}}}{18}{figure.11}\protected@file@percent }
\newlabel{Cart}{{11}{18}{UML: \code {Cart}}{figure.11}{}}
\@writefile{lof}{\contentsline {figure}{\numberline {12}{\ignorespaces UML: \texttt  {Cart} State Machine}}{18}{figure.12}\protected@file@percent }
\newlabel{CartStateMachine}{{12}{18}{UML: \code {Cart} State Machine}{figure.12}{}}
\@writefile{toc}{\contentsline {subsection}{\numberline {4.7}\texttt  {CartState}}{19}{subsection.4.7}\protected@file@percent }
\@writefile{lof}{\contentsline {figure}{\numberline {13}{\ignorespaces UML: \texttt  {Cart} State Machine}}{19}{figure.13}\protected@file@percent }
\newlabel{CartState}{{13}{19}{UML: \code {Cart} State Machine}{figure.13}{}}
\@writefile{toc}{\contentsline {subsection}{\numberline {4.8}\texttt  {AmbientStateSampler}}{20}{subsection.4.8}\protected@file@percent }
\@writefile{lof}{\contentsline {figure}{\numberline {14}{\ignorespaces UML: \texttt  {AmbientStateSampler}}}{20}{figure.14}\protected@file@percent }
\newlabel{AmbientStateSampler}{{14}{20}{UML: \code {AmbientStateSampler}}{figure.14}{}}
\@writefile{lof}{\contentsline {figure}{\numberline {15}{\ignorespaces UML: \texttt  {AmbientStateSampler.FixedUpdate()}}}{21}{figure.15}\protected@file@percent }
\newlabel{AmbientStateSampler.FixedUpdate}{{15}{21}{UML: \code {AmbientStateSampler.FixedUpdate()}}{figure.15}{}}
\@writefile{lof}{\contentsline {figure}{\numberline {16}{\ignorespaces UML: \texttt  {AmbientStateSampler.GetState()}}}{21}{figure.16}\protected@file@percent }
\newlabel{AmbientStateSampler.GetState}{{16}{21}{UML: \code {AmbientStateSampler.GetState()}}{figure.16}{}}
\@writefile{lof}{\contentsline {figure}{\numberline {17}{\ignorespaces Each cart casts rays that surround it to query whether an obstacle is nearby. These are the green rays in the figure. The yellow rays in the figure are the direction of the spheres cast towards the \texttt  {TargetDestination}.}}{22}{figure.17}\protected@file@percent }
\newlabel{CartRays}{{17}{22}{Each cart casts rays that surround it to query whether an obstacle is nearby. These are the green rays in the figure. The yellow rays in the figure are the direction of the spheres cast towards the \code {TargetDestination}}{figure.17}{}}
\@writefile{toc}{\contentsline {subsection}{\numberline {4.9}\texttt  {QLearnedManipulator}}{22}{subsection.4.9}\protected@file@percent }
\@writefile{lof}{\contentsline {figure}{\numberline {18}{\ignorespaces UML: \texttt  {QLearnedManipulator} Class Diagram}}{22}{figure.18}\protected@file@percent }
\newlabel{QLearnedManipulator}{{18}{22}{UML: \code {QLearnedManipulator} Class Diagram}{figure.18}{}}
\@writefile{lof}{\contentsline {figure}{\numberline {19}{\ignorespaces UML: \texttt  {QLearnedManipulator.FixedUpdate()} Activity Diagram}}{23}{figure.19}\protected@file@percent }
\newlabel{QLearnedManipulator.FixedUpdate}{{19}{23}{UML: \code {QLearnedManipulator.FixedUpdate()} Activity Diagram}{figure.19}{}}
\@writefile{lof}{\contentsline {figure}{\numberline {20}{\ignorespaces UML: \texttt  {QLearnedManipulator.TakeNewSteeringDirection()} Sequence Diagram}}{24}{figure.20}\protected@file@percent }
\newlabel{QLearnedManipulator.TakeNewSteeringDirection}{{20}{24}{UML: \code {QLearnedManipulator.TakeNewSteeringDirection()} Sequence Diagram}{figure.20}{}}
\@writefile{lof}{\contentsline {figure}{\numberline {21}{\ignorespaces UML: \texttt  {QLearnedManipulator.OnTriggerEnter(Collider)} Sequence Diagram}}{24}{figure.21}\protected@file@percent }
\newlabel{QLearnedManipulator.OnTriggerEnter}{{21}{24}{UML: \code {QLearnedManipulator.OnTriggerEnter(Collider)} Sequence Diagram}{figure.21}{}}
\citation{Schell}
\@writefile{toc}{\contentsline {section}{\numberline {5}Results}{25}{section.5}\protected@file@percent }
\@writefile{toc}{\contentsline {subsection}{\numberline {5.1}The Game}{25}{subsection.5.1}\protected@file@percent }
\@writefile{toc}{\contentsline {subsection}{\numberline {5.2}The Promise of Reinforcement Learning}{25}{subsection.5.2}\protected@file@percent }
\@writefile{lof}{\contentsline {figure}{\numberline {22}{\ignorespaces A preview of all the carts sampling the information with their rays.}}{26}{figure.22}\protected@file@percent }
\@writefile{lof}{\contentsline {figure}{\numberline {23}{\ignorespaces A chart depicting the essential process of reinforcement learning.}}{27}{figure.23}\protected@file@percent }
\bibcite{Millington}{1}
\bibcite{Sutton}{2}
\bibcite{Schell}{3}
\bibcite{Koster}{4}
\bibcite{Novak}{5}
\bibcite{Csikszentmihalyi}{6}
\bibcite{Zimmerman}{7}
\bibcite{Wilson}{8}
\bibcite{Harari}{9}
\bibcite{Gamma}{10}
\bibcite{Nystrom}{11}
\bibcite{Mnih}{12}
\bibcite{Sethy}{13}
\bibcite{Bowling}{14}
