0.2240849, 0
0.4589124, 0.1831867
0.6899452, 0.1757486
0.9262118, 0.1687419
1.13268, 0.4891825
1.340989, 1.261633
1.555516, 1.525433
1.776263, 1.918461
1.995728, 2.28711
2.21504, 2.356189
2.438558, 2.285389
2.650351, 2.483546
2.876548, 2.412224
3.101234, 2.46876
3.321492, 2.583671
3.548628, 2.573512
3.768202, 2.851212
3.971345, 2.953849
4.179641, 2.886823
4.392975, 2.821257
4.631358, 2.907171
4.847545, 2.944896
5.05116, 3.283203
5.254433, 3.315639
5.455226, 3.395431
5.664359, 3.422616
5.867422, 3.726735
6.06782, 3.885137
6.289112, 4.119013
6.490158, 4.133973
6.699441, 4.145497
6.914752, 4.322373
7.150906, 4.567561
7.38583, 4.723139
7.613249, 4.717262
7.833645, 4.636251
8.056364, 4.863529
8.277562, 5.00845
8.496534, 5.038331
8.716139, 5.176384
8.949059, 5.305017
9.186934, 5.53326
9.406243, 5.622562
9.622464, 5.77878
9.831364, 5.865947
10.04697, 6.047729
10.26128, 6.06109
10.47003, 6.108587
10.67883, 6.059124
10.88168, 6.076185
11.08369, 6.124216
11.30829, 6.162509
11.51156, 6.177491
11.7373, 6.273414
11.96461, 6.277773
12.18697, 6.429288
12.40418, 6.521421
12.62403, 6.496811
12.83887, 6.418568
13.04402, 6.345592
13.25574, 6.299389
13.46252, 6.364244
13.68541, 6.448883
13.89738, 6.455922
14.10629, 6.385331
14.31337, 6.368644
14.52016, 6.301178
14.7445, 6.330878
14.97433, 6.308097
15.19437, 6.338399
15.41517, 6.294339
15.63836, 6.395858
15.85641, 6.520777
16.07173, 6.454144
16.29309, 6.434012
16.5163, 6.367265
16.73867, 6.348135
16.96374, 6.305847
17.19254, 6.285896
17.39402, 6.229342
17.60545, 6.259552
17.80828, 6.313498
18.01157, 6.475005
18.2144, 6.418429
18.41684, 6.426999
18.62218, 6.646297
18.83342, 6.629348
19.0373, 6.614719
19.23791, 6.580601
19.44016, 6.567061
19.64152, 6.614852
19.87052, 6.634362
20.07222, 6.640815
20.2737, 6.706575
20.47515, 6.712422
20.67864, 6.717646
20.88141, 6.74229
21.0825, 6.728649
21.28924, 6.751813
21.49433, 6.756163
21.69838, 6.816894
21.90715, 6.949824
22.11494, 6.933447
22.31944, 6.881547
22.5202, 6.831347
22.7353, 6.796394
22.94201, 6.746114
23.15239, 6.695702
23.3681, 6.750539
23.58733, 6.716262
23.80494, 6.734956
24.01932, 6.736892
24.23216, 6.722048
24.43789, 6.70904
24.65224, 6.677405
24.86193, 6.680747
25.07131, 6.634231
25.28181, 6.621138
25.49574, 6.574688
25.70569, 6.546018
25.91846, 6.533313
26.13442, 6.520115
26.34291, 6.508648
26.55784, 6.464321
26.77562, 6.482958
26.99032, 6.455077
27.2052, 6.443059
27.41977, 6.400416
27.63595, 6.35802
27.85313, 6.315988
28.06767, 6.275012
28.28298, 6.24944
28.49953, 6.283671
28.71542, 6.243433
28.93316, 6.203371
29.14869, 6.193502
29.3633, 6.154823
29.5737, 6.117366
29.78445, 6.109051
29.99498, 6.0723
30.202, 6.03659
30.40607, 6.072404
30.61542, 6.120944
30.81651, 6.086579
31.02085, 6.052051
31.22316, 6.01825
31.42319, 5.985197
31.62389, 5.952399
31.82829, 5.919363
32.05099, 5.883783
32.27784, 5.95528
32.47907, 5.936646
32.68296, 5.944332
32.88839, 5.912101
33.1176, 5.876551
33.3368, 5.855993
33.55759, 5.848394
33.77679, 5.815335
33.99948, 5.782129
34.22382, 5.749057
34.44675, 5.754594
34.66995, 5.747423
34.90058, 5.739265
35.12654, 5.781709
35.34595, 5.775054
35.56923, 5.780243
35.79859, 5.796769
36.02552, 5.874393
36.24873, 5.89109
36.47611, 5.94318
36.70519, 5.982469
36.93563, 5.961518
37.16233, 5.953181
37.39994, 5.91982
37.60411, 5.89145
37.81076, 5.863012
38.02134, 5.869181
38.24191, 5.862368
38.45, 5.868814
38.66505, 5.897165
38.883, 5.867876
39.10151, 5.89549
39.32368, 5.899781
39.5449, 5.881705
39.77264, 5.862955
40.00361, 5.866196
40.23334, 5.880618
40.43457, 5.854573
40.66696, 5.879524
40.90629, 5.892438
41.14376, 5.87295
41.34752, 5.901072
41.54865, 5.875573
41.74927, 5.850359
41.95089, 5.825236
42.15989, 5.810023
42.36917, 5.826575
42.57851, 5.800938
42.78998, 5.77527
42.99377, 5.750746
43.19926, 5.726229
43.40366, 5.702049
43.60892, 5.698543
43.81472, 5.674518
44.0271, 5.711128
44.23743, 5.696886
44.45207, 5.742934
44.65986, 5.759179
44.87492, 5.794495
45.09004, 5.779593
45.30219, 5.765157
45.53112, 5.768722
45.74017, 5.764663
45.94987, 5.799819
46.15947, 5.795603
46.37287, 5.790994
46.58432, 5.806028
46.79779, 5.820712
47.01015, 5.796945
47.21927, 5.783305
47.43594, 5.788014
47.65084, 5.773887
47.86686, 5.835413
48.08012, 5.887327
48.29606, 5.863473
48.50703, 5.840354
48.71495, 5.882906
48.92124, 5.878945
49.13269, 5.902164
49.34046, 5.9072
49.54967, 5.893711
49.75774, 5.880447
49.97153, 5.875769
50.18218, 5.889583
50.39679, 5.875792
50.60781, 5.88946
50.81756, 5.90316
51.0295, 5.907602
51.23527, 5.894877
51.44361, 5.890835
51.64638, 5.905056
51.85619, 5.883265
52.06483, 5.861754
52.26787, 5.849703
52.47226, 5.828899
52.67533, 5.825715
52.87597, 5.805518
53.07723, 5.785399
53.28523, 5.790489
53.48638, 5.770575
53.68917, 5.750635
53.90503, 5.729561
54.13411, 5.707366
54.34309, 5.754672
54.57726, 5.740445
54.80307, 5.71877
55.02885, 5.69726
55.25926, 5.700368
55.47916, 5.679642
55.69075, 5.659841
55.90644, 5.639798
56.13579, 5.634997
56.34161, 5.61609
56.57006, 5.611493
56.77525, 5.592855
56.97585, 5.574752
57.20548, 5.554173
57.428, 5.534376
57.65532, 5.514297
57.87737, 5.510727
58.09603, 5.491629
58.31281, 5.472826
58.52647, 5.45442
58.74097, 5.436064
58.95622, 5.417768
59.17146, 5.41518
59.38463, 5.397251
59.59669, 5.433715
59.80687, 5.416092
60.01983, 5.413733
60.22743, 5.411833
60.43702, 5.409782
60.66379, 5.391099
60.86485, 5.374642
61.07197, 5.357794
61.27826, 5.341118
61.47981, 5.355009
61.68332, 5.338666
61.8867, 5.337384
62.11135, 5.341868
62.32454, 5.324953
62.52507, 5.338758
62.75661, 5.320514
62.98308, 5.3175
63.21278, 5.299594
63.43429, 5.326277
63.63475, 5.332576
63.86168, 5.329525
64.06221, 5.357489
64.29086, 5.33981
64.49354, 5.331431
64.71964, 5.314141
64.92264, 5.298713
65.12296, 5.283576
65.35331, 5.294705
65.57681, 5.299191
65.77686, 5.3266
66.00306, 5.316672
66.23178, 5.327678
66.45882, 5.310751
66.65948, 5.316813
66.85997, 5.301978
67.06258, 5.287072
67.29119, 5.270352
67.51926, 5.260671
67.72277, 5.280327
67.92657, 5.272427
68.13389, 5.257481
68.33926, 5.242758
68.54704, 5.227947
68.75266, 5.213371
68.95597, 5.199039
69.16489, 5.184393
69.37431, 5.169796
69.58301, 5.162034
69.79562, 5.14736
70.00451, 5.153024
70.21507, 5.138597
70.42496, 5.124298
70.63507, 5.110063
70.84335, 5.109216
71.05822, 5.121077
71.26618, 5.126781
71.48351, 5.112213
71.69718, 5.097971
71.90149, 5.084427
72.13342, 5.095068
72.34469, 5.119938
72.55787, 5.105865
72.77472, 5.123773
72.98698, 5.109827
73.19051, 5.115711
73.39687, 5.115
73.59908, 5.10184
73.80531, 5.08849
74.01073, 5.081588
74.21108, 5.068735
74.41503, 5.074606
74.6408, 5.123002
74.84404, 5.141273
75.07278, 5.139075
75.27749, 5.157112
75.48071, 5.162728
75.69142, 5.192621
75.89362, 5.179642
76.09399, 5.166844
76.32232, 5.158485
76.55181, 5.156231
76.77807, 5.166422
76.97987, 5.172002
77.18704, 5.171132
77.38821, 5.158505
77.59348, 5.145685
77.79872, 5.132929
78.00048, 5.126476
78.20312, 5.138029
78.40853, 5.125375
78.61495, 5.118702
78.82061, 5.124038
79.02639, 5.11744
79.23545, 5.116611
79.44373, 5.139517
79.65435, 5.12673
79.86148, 5.114217
80.07465, 5.101402
80.28684, 5.094573
80.50459, 5.081599
80.71589, 5.074905
80.93297, 5.079541
81.15473, 5.078073
81.37722, 5.070781
81.59885, 5.057804
81.82122, 5.044849
82.04382, 5.031949
82.26728, 5.024793
82.4957, 5.011675
82.70885, 5.005196
82.92709, 4.998459
83.1345, 4.99237
83.3418, 4.980655
83.54652, 4.96914
83.76136, 4.968378
83.97443, 4.956481
84.2015, 4.966284
84.43367, 4.958982
84.63654, 4.964494
84.84412, 4.975284
85.05923, 4.974504
85.27058, 4.973935
85.50945, 4.971857
85.7387, 4.975826
85.96005, 4.985705
86.18146, 5.022951
86.40188, 5.021779
86.61807, 5.015386
86.83267, 5.014555
87.04865, 5.035381
87.26695, 5.028886
87.47978, 5.017313
87.69571, 5.011019
87.91103, 5.015551
88.12706, 5.03613
88.33975, 5.024654
88.56105, 5.01277
88.77505, 5.006662
89.00151, 5.026515
89.21574, 5.0257
89.42655, 5.02507
89.63822, 5.024397
89.85418, 5.0235
90.07014, 5.033126
90.28944, 5.058273
90.50303, 5.052196
90.75278, 5.04424
90.97643, 5.042905
91.20238, 5.077837
91.41543, 5.066617
91.62578, 5.071111
91.83019, 5.065569
92.03038, 5.060271
92.23043, 5.065287
92.46851, 5.073434
92.70555, 5.061125
92.94035, 5.074518
93.1579, 5.083646
93.38416, 5.082119
93.60098, 5.070943
93.81723, 5.059846
94.04307, 5.048309
94.24686, 5.048018
94.45107, 5.047708
94.6563, 5.04233
94.85898, 5.072153
95.06306, 5.081795
95.29535, 5.089967
95.5228, 5.118242
95.75036, 5.141421
95.98075, 5.149496
96.20928, 5.157629
96.43998, 5.150829
96.66593, 5.163972
96.89804, 5.176744
97.1239, 5.199566
97.35421, 5.222062
97.5821, 5.264076
97.8089, 5.267054
98.03344, 5.279839
98.25298, 5.287983
98.47513, 5.281462
98.69241, 5.270396
98.92098, 5.263615
99.13927, 5.266985
99.37074, 5.274467
99.58154, 5.311645
99.79452, 5.305621
100.003, 5.314135
100.2139, 5.32724
100.4266, 5.344953
100.6339, 5.358128
100.8427, 5.357005
101.0536, 5.346352
101.2619, 5.340578
101.4735, 5.358138
101.683, 5.356991
101.8931, 5.355816
102.1, 5.382819
102.305, 5.405153
102.508, 5.394947
102.7357, 5.392826
102.9593, 5.395552
103.1803, 5.389151
103.4007, 5.38742
103.6156, 5.381361
103.8187, 5.371317
104.0466, 5.364678
104.2548, 5.372762
104.4585, 5.376465
104.664, 5.375512
104.8734, 5.365266
105.0797, 5.382465
105.2894, 5.385828
105.5048, 5.397957
105.7185, 5.401086
105.9352, 5.404055
106.1494, 5.402637
106.3651, 5.41462
106.577, 5.413301
106.7862, 5.421062
106.9928, 5.419991
107.1974, 5.427934
107.3983, 5.418232
107.6021, 5.412865
107.8042, 5.416467
108.0046, 5.420132
108.2324, 5.40923
108.4547, 5.411854
108.676, 5.401314
108.8849, 5.40458
109.1109, 5.402641
109.3332, 5.392135
109.5559, 5.381652
109.7771, 5.371282
109.9953, 5.361087
110.2135, 5.372633
110.4324, 5.379771
110.656, 5.378017
110.8794, 5.380594
111.0821, 5.3712
111.2858, 5.361791
111.4942, 5.352198
111.702, 5.346953
111.9125, 5.345877
112.1229, 5.344812
112.3408, 5.368975
112.5616, 5.375907
112.7842, 5.369991
113.0153, 5.359473
113.2159, 5.350379
113.4435, 5.340097
113.6442, 5.331065
113.874, 5.324966
114.0824, 5.315647
114.3117, 5.322196
114.5455, 5.345243
114.7782, 5.343208
114.98, 5.346722
115.1879, 5.337475
115.3964, 5.328234
115.602, 5.319149
115.8114, 5.309927
116.0191, 5.300816
116.2369, 5.291296
116.4496, 5.294376
116.66, 5.285221
116.8719, 5.292444
117.0875, 5.291289
117.3127, 5.281545
117.5296, 5.280358
117.7571, 5.27057
117.9755, 5.281538
118.1984, 5.284158
118.4651, 5.276795
118.6959, 5.28716
118.9204, 5.297755
119.1412, 5.312499
119.3596, 5.319254
119.5761, 5.346128
119.7936, 5.356846
120.015, 5.347358
120.2334, 5.361988
120.4553, 5.368445
120.673, 5.367105
120.8913, 5.361767
121.107, 5.352599
121.3208, 5.343538
121.5353, 5.342384
121.7482, 5.345244
121.9553, 5.34046
122.1646, 5.339538
122.3698, 5.330936
122.5777, 5.322247
122.784, 5.325395
122.9894, 5.324658
123.1994, 5.315938
123.4306, 5.306366
123.6362, 5.297885
123.8467, 5.300874
124.0521, 5.300187
124.2576, 5.3111
124.4702, 5.310104
124.6962, 5.308559
124.9175, 5.299519
125.1328, 5.302277
125.3492, 5.293475
125.5555, 5.28511
125.7682, 5.280335
125.9762, 5.283404
126.1935, 5.293707
126.4013, 5.300556
126.6158, 5.295717
126.8264, 5.302429
127.0324, 5.313088
127.2383, 5.3086
127.4509, 5.311402
127.6551, 5.314535
127.8649, 5.340012
128.077, 5.339015
128.2775, 5.349741
128.4777, 5.341715
128.7151, 5.332231
128.9513, 5.326563
129.1825, 5.332292
129.4218, 5.348833
129.6526, 5.373087
129.8837, 5.375001
130.1113, 5.384451
130.3403, 5.412285
130.5656, 5.414352
130.7897, 5.412781
131.0123, 5.422304
131.2393, 5.420609
131.4634, 5.430027
131.6848, 5.421233
131.9074, 5.419723
132.1275, 5.418317
132.3453, 5.409722
132.5599, 5.401284
132.7694, 5.393068
132.9808, 5.392055
133.1969, 5.398097
133.4092, 5.397041
133.6207, 5.403234
133.834, 5.409337
134.0507, 5.422484
134.2668, 5.421247
134.4819, 5.420057
134.6947, 5.4118
134.9005, 5.410988
135.1073, 5.403004
135.3098, 5.40233
135.5154, 5.394428
135.7507, 5.399617
135.9666, 5.41263
136.1798, 5.407998
136.3858, 5.407189
136.589, 5.399431
136.7901, 5.391771
136.9919, 5.391154
137.1979, 5.390376
137.4229, 5.392393
137.6545, 5.394152
137.8832, 5.385517
138.1073, 5.384072
138.3426, 5.424067
138.5778, 5.418666
138.8043, 5.413607
139.0296, 5.405138
139.2613, 5.417254
139.4817, 5.40899
139.7047, 5.407565
139.9278, 5.39924
140.1545, 5.390806
140.3771, 5.389431
140.599, 5.388086
140.8208, 5.383321
141.0422, 5.382006
141.2693, 5.387322
141.5022, 5.395822
141.7274, 5.394358
141.9589, 5.413077
142.1866, 5.404705
142.4193, 5.396174
142.6487, 5.391174
142.8758, 5.399801
143.1003, 5.394991
143.3188, 5.400529
143.5212, 5.399904
143.7465, 5.391724
143.9699, 5.386995
144.1998, 5.392098
144.4239, 5.404089
144.6534, 5.395802
144.8794, 5.394338
145.1039, 5.38627
145.3374, 5.377903
145.5631, 5.379805
145.784, 5.371923
146.0072, 5.363983
146.2362, 5.359168
146.4811, 5.350502
146.6819, 5.346717
146.907, 5.345374
147.1407, 5.356885
147.3428, 5.353059
147.5586, 5.368429
147.7592, 5.367924
147.9657, 5.36068
148.1665, 5.360179
148.3666, 5.353186
148.6002, 5.358065
148.8292, 5.353341
149.064, 5.351671
149.2657, 5.344674
149.4988, 5.339847
149.7305, 5.344776
149.9578, 5.336936
150.1755, 5.332673
150.3755, 5.345114
150.579, 5.36062
150.8115, 5.359039
151.038, 5.373691
151.2645, 5.372302
151.4872, 5.364658
151.7095, 5.366617
151.9373, 5.371573
152.1611, 5.386193
152.362, 5.401557
152.5975, 5.399833
152.8245, 5.392066
153.0573, 5.403104
153.2847, 5.398499
153.5062, 5.390956
153.7377, 5.401993
153.9648, 5.413149
154.1648, 5.41577
154.3946, 5.407963
154.6238, 5.400196
154.8558, 5.392361
155.0824, 5.384727
155.3138, 5.383194
155.5461, 5.375402
155.7605, 5.371346
155.9623, 5.364612
156.1653, 5.357855
156.3669, 5.351159
156.5705, 5.344415
156.7735, 5.343893
156.9853, 5.339991
157.1961, 5.33305
157.4111, 5.33215
157.6276, 5.325049
157.8506, 5.320829
158.0695, 5.313686
158.2939, 5.318631
158.5313, 5.310911
158.7559, 5.303626
158.9808, 5.311598
159.2035, 5.304392
159.4271, 5.306303
159.6595, 5.310959
159.888, 5.303598
160.1213, 5.30519
160.3633, 5.306499
160.6043, 5.298775
160.8446, 5.291099
161.0483, 5.284607
161.284, 5.28313
161.4918, 5.279541
161.6999, 5.272949
161.9071, 5.266404
162.115, 5.283787
162.3437, 5.276567
162.5492, 5.273077
162.759, 5.269464
162.9722, 5.262776
163.1787, 5.256314
163.3918, 5.249662
163.6089, 5.248835
163.8406, 5.250515
164.0641, 5.246531
164.2902, 5.254291
164.5144, 5.259141
164.7361, 5.261108
164.9605, 5.260047
165.1947, 5.288062
165.4352, 5.292333
165.6577, 5.305943
165.8642, 5.320014
166.0869, 5.333547
166.3141, 5.33231
166.5411, 5.342742
166.7662, 5.341563
166.9889, 5.349181
167.2171, 5.344998
167.437, 5.341081
167.658, 5.334245
167.9066, 5.329467
168.1537, 5.333413
168.3797, 5.32646
168.603, 5.322489
168.8419, 5.335307
169.0591, 5.331523
169.2762, 5.330619
169.4924, 5.335476
169.7135, 5.328723
169.9351, 5.330548
170.1537, 5.329604
170.3714, 5.322989
170.5899, 5.32206
170.8066, 5.3155
171.026, 5.314554
171.24, 5.316614
171.4556, 5.32712
171.6717, 5.320602
171.8783, 5.331349
172.1074, 5.338569
172.333, 5.337417
172.5609, 5.330565
172.7905, 5.329308
173.0209, 5.344878
173.2487, 5.346463
173.4756, 5.362077
173.7059, 5.380349
173.9321, 5.395902
174.1442, 5.395095
174.374, 5.396544
174.6078, 5.403441
174.834, 5.416106
175.0585, 5.428792
175.2823, 5.435919
175.5106, 5.440125
175.7384, 5.444331
175.9632, 5.437569
176.1924, 5.430691
176.4179, 5.445991
176.6521, 5.44172
176.8855, 5.434736
177.1144, 5.433399
177.3409, 5.426647
177.5792, 5.430519
177.8046, 5.451176
178.0387, 5.449669
178.2429, 5.446322
178.4741, 5.447635
178.7006, 5.454527
178.9312, 5.453126
179.1514, 5.452036
179.39, 5.453117
179.6091, 5.449353
179.8258, 5.442964
180.041, 5.447442
180.2567, 5.449197
180.4814, 5.45068
180.7036, 5.454928
180.9297, 5.453674
181.1505, 5.449892
181.3735, 5.451419
181.5951, 5.447625
181.8172, 5.441147
182.0574, 5.434161
182.2808, 5.433019
182.5171, 5.426173
182.7412, 5.427684
182.969, 5.431747
183.1927, 5.435916
183.4196, 5.434678
183.6425, 5.436208
183.8678, 5.429725
184.0876, 5.423413
184.3119, 5.427552
184.5233, 5.421496
184.742, 5.415249
184.958, 5.411724
185.173, 5.405605
185.3897, 5.404704
185.6153, 5.419293
185.8374, 5.423464
186.0572, 5.440778
186.2746, 5.439822
186.4964, 5.446578
186.7208, 5.448027
186.9518, 5.45189
187.1781, 5.461081
187.4026, 5.462503
187.6409, 5.479105
187.871, 5.480348
188.097, 5.48429
188.3191, 5.493508
188.5436, 5.487136
188.771, 5.491019
188.9898, 5.48998
189.2094, 5.483771
189.4355, 5.477396
189.6545, 5.471232
189.8899, 5.47232
190.1126, 5.471201
190.3307, 5.47789
190.5422, 5.487307
190.7533, 5.501822
190.9638, 5.503566
191.1844, 5.505024
191.3853, 5.501938
191.6085, 5.503322
191.8421, 5.499331
192.0706, 5.500567
192.2988, 5.511945
192.5138, 5.521134
192.7339, 5.532687
192.9602, 5.55162
193.1813, 5.545427
193.4007, 5.539296
193.6235, 5.533082
193.8426, 5.526984
194.0582, 5.521
194.2695, 5.522671
194.4819, 5.531829
194.6911, 5.553577
194.9019, 5.560228
195.1086, 5.574472
195.3425, 5.585435
195.5752, 5.586433
195.7754, 5.595804
