0.2042766, 0
0.4048467, 0
0.6231565, 0
0.8256378, 0.3433101
1.064872, 0.9893037
1.335346, 1.262757
1.536731, 1.376835
1.742093, 1.483219
1.955823, 1.437644
2.158002, 1.397038
2.359018, 1.358877
2.621094, 1.312148
2.821886, 1.278464
3.023979, 1.620144
3.293108, 1.567567
3.50157, 1.529129
3.772498, 1.481904
4.02229, 1.440876
4.223275, 1.409478
4.479566, 1.371371
4.733719, 1.335564
4.979058, 1.302728
5.227464, 1.271087
5.436461, 1.245633
5.687284, 1.216399
5.92578, 1.189846
6.160082, 1.164866
6.383898, 1.141964
6.609516, 1.119771
6.838181, 1.098142
7.062746, 1.077698
7.284114, 1.058277
7.500061, 1.039995
7.718604, 1.022125
7.938314, 1.004768
8.14607, 0.9888887
8.366001, 0.972617
8.583553, 0.9570397
8.796921, 1.087199
9.006318, 1.070945
9.220987, 1.054779
9.425142, 1.109174
9.638633, 1.161311
9.844915, 1.212536
10.05562, 1.261987
10.26241, 1.343169
10.46551, 1.39019
10.67361, 1.467435
10.92028, 1.538918
11.16462, 1.577519
11.41107, 1.645231
11.64244, 1.772577
11.87863, 1.807019
12.11583, 1.840401
12.3522, 1.901776
12.58028, 1.962426
12.81633, 2.048682
13.03984, 2.106449
13.26367, 2.10801
13.49756, 2.216509
13.72114, 2.350284
13.94163, 2.322926
14.17276, 2.373159
14.39487, 2.423321
14.61492, 2.421626
14.83461, 2.420012
15.05377, 2.418497
15.27322, 2.416982
15.49383, 2.439759
15.71539, 2.461938
15.94399, 2.506685
16.18178, 2.549361
16.42117, 2.544212
16.72798, 2.577322
16.974, 2.593975
17.19371, 2.613353
17.43991, 2.651526
17.67181, 2.734673
17.89362, 2.708179
18.11618, 2.682104
18.33656, 2.656775
18.56169, 2.716274
18.79622, 2.689503
19.02279, 2.684951
19.25749, 2.679585
19.49176, 2.653954
19.71995, 2.629455
19.95549, 2.604637
20.18271, 2.581136
20.41846, 2.557196
20.65462, 2.553146
20.87927, 2.646907
21.11804, 2.622709
21.34304, 2.600307
21.57898, 2.577224
21.81783, 2.554271
22.04385, 2.532924
22.28019, 2.51098
22.51537, 2.489518
22.74016, 2.469344
22.97517, 2.4486
23.21367, 2.427901
23.44127, 2.408472
23.67935, 2.388478
23.91842, 2.368732
24.15337, 2.349642
24.3835, 2.33124
24.62105, 2.312545
24.85983, 2.294052
25.09944, 2.275789
25.33796, 2.257898
25.57639, 2.240291
25.81329, 2.223067
26.04001, 2.206829
26.2761, 2.190171
26.5041, 2.17432
26.74039, 2.158134
26.97937, 2.142006
27.21714, 2.141717
27.45485, 2.12603
27.68234, 2.111232
27.91795, 2.096121
28.1572, 2.080996
28.39896, 2.065933
28.61396, 2.052719
28.84449, 2.038737
29.09493, 2.023761
29.34311, 2.009136
29.58385, 1.995151
29.83775, 1.98061
30.04072, 1.969138
30.28559, 1.955472
30.49697, 1.943828
30.6997, 1.932789
30.9456, 1.919567
31.15568, 1.908414
31.35778, 1.897806
31.56003, 1.887307
31.7635, 1.876862
31.9761, 1.86607
32.17984, 1.855845
32.38457, 1.845681
32.60198, 1.83501
32.82013, 1.824425
33.03639, 1.814052
33.24834, 1.804
33.49181, 1.792589
33.72117, 1.781971
33.94315, 1.771814
34.16763, 1.761659
34.3993, 1.776682
34.6206, 1.766758
34.84217, 1.756932
35.06406, 1.747202
35.28196, 1.762576
35.50993, 1.752657
35.74347, 1.742611
35.96365, 1.733244
36.18935, 1.723746
36.42798, 1.713817
36.66381, 1.704117
36.90734, 1.694214
37.16076, 1.68403
37.42864, 1.673398
37.63178, 1.665424
37.89361, 1.655258
38.15551, 1.645213
38.41245, 1.635476
38.61679, 1.627813
38.88327, 1.617929
39.15661, 1.607913
39.35696, 1.600651
39.56122, 1.593314
39.77603, 1.58567
39.98266, 1.578386
40.22809, 1.569821
40.43995, 1.562502
40.64557, 1.555463
40.85915, 1.548219
41.06415, 1.541329
41.26686, 1.534576
41.47988, 1.527543
41.68223, 1.520921
41.88285, 1.514413
42.10043, 1.507417
42.30487, 1.500902
42.57419, 1.513426
42.77829, 1.506961
42.97947, 1.500642
43.19251, 1.494008
43.39619, 1.48772
43.5966, 1.52274
43.79691, 1.516489
43.99896, 1.510236
44.21756, 1.523846
44.43261, 1.537447
44.63926, 1.531046
44.85499, 1.524421
45.06077, 1.518155
45.27364, 1.511726
45.47786, 1.50561
45.6895, 1.499324
45.8897, 1.493426
46.15616, 1.505195
46.36003, 1.49922
46.56325, 1.493312
46.76451, 1.487506
46.97692, 1.481427
47.18297, 1.475577
47.4005, 1.469452
47.60494, 1.463741
47.81774, 1.457844
48.0249, 1.452148
48.24146, 1.446241
48.45596, 1.440438
48.65897, 1.434988
48.86128, 1.429598
49.06616, 1.424181
49.27776, 1.418629
49.47959, 1.413373
49.68251, 1.408128
49.88684, 1.421106
50.10592, 1.415456
50.3215, 1.40994
50.53796, 1.422451
50.7572, 1.416857
50.96079, 1.411703
51.16459, 1.40658
51.37615, 1.401302
51.60251, 1.395698
51.8737, 1.389043
52.12926, 1.382829
52.39747, 1.376367
52.65466, 1.370228
52.90681, 1.364261
53.15072, 1.358539
53.39474, 1.352862
53.63424, 1.347336
53.87857, 1.341745
54.16381, 1.335276
54.39954, 1.329977
54.63427, 1.324742
54.86484, 1.319639
55.08817, 1.314735
55.34685, 1.309099
55.56676, 1.304346
55.78626, 1.299636
56.00546, 1.294966
56.22198, 1.290386
56.43888, 1.285831
56.644, 1.281552
56.86004, 1.277076
57.06506, 1.272858
57.27937, 1.268478
57.48103, 1.264384
57.68398, 1.26029
57.88648, 1.256232
58.09652, 1.25205
58.30373, 1.247952
58.50552, 1.243986
58.71453, 1.239906
58.9165, 1.235988
59.15958, 1.231305
59.40033, 1.226702
59.64214, 1.237583
59.84929, 1.23363
60.05993, 1.229635
60.29982, 1.225118
60.5395, 1.220638
60.77966, 1.216181
61.02345, 1.241983
61.26319, 1.252581
61.50379, 1.248049
61.74287, 1.243578
61.97823, 1.239209
62.21693, 1.234808
62.44453, 1.230641
62.67582, 1.226435
62.90063, 1.222374
63.13979, 1.218084
63.36138, 1.228764
63.59565, 1.224567
63.82096, 1.220558
64.05511, 1.21642
64.28298, 1.212419
64.5213, 1.208263
64.75877, 1.20415
64.99752, 1.242901
65.23842, 1.238638
65.47561, 1.23447
65.71629, 1.230268
65.9166, 1.226793
66.16018, 1.222594
66.40034, 1.218482
66.60706, 1.214964
66.81885, 1.211381
67.05821, 1.221235
67.29835, 1.23101
67.54095, 1.226893
67.78008, 1.222862
68.02363, 1.218784
68.2317, 1.215321
68.43826, 1.211902
68.67879, 1.207946
68.87982, 1.218195
69.12259, 1.227696
69.32507, 1.224351
69.53247, 1.227653
69.77853, 1.2303
70.01947, 1.226348
70.2202, 1.223076
70.46366, 1.21913
70.71454, 1.21509
70.95499, 1.217826
71.19616, 1.220534
71.42215, 1.216925
71.66135, 1.213127
71.89675, 1.209414
72.13396, 1.205695
72.36187, 1.202143
72.59776, 1.198488
72.83246, 1.194874
73.05737, 1.217054
73.2932, 1.22616
73.52011, 1.222617
73.75697, 1.21894
73.99487, 1.215269
74.23477, 1.211589
74.47345, 1.207951
74.71538, 1.204285
74.9155, 1.201269
75.15553, 1.197672
75.3935, 1.194126
75.6209, 1.190758
75.85774, 1.224373
76.09439, 1.2208
76.33395, 1.217204
76.56285, 1.213788
76.80275, 1.222453
77.04252, 1.21888
77.2813, 1.215343
77.51904, 1.211842
77.75696, 1.208358
77.99583, 1.20488
78.231, 1.225505
78.45867, 1.222162
78.69659, 1.218688
78.93527, 1.215222
79.16343, 1.235691
79.40045, 1.232221
79.63911, 1.228746
79.87959, 1.225265
80.12086, 1.221792
80.36253, 1.218333
80.61337, 1.214764
80.85797, 1.211303
81.05971, 1.208463
81.26349, 1.205609
81.47543, 1.202654
81.69881, 1.199555
81.8997, 1.196782
82.10318, 1.193986
82.30453, 1.191233
82.55806, 1.193494
82.76123, 1.190731
82.96402, 1.187986
83.18015, 1.185074
83.38794, 1.182288
83.60262, 1.179423
83.8238, 1.176486
84.04636, 1.173546
84.28223, 1.170446
84.51028, 1.167464
84.75356, 1.164299
84.99331, 1.161197
85.23792, 1.15805
85.4944, 1.154768
85.75663, 1.162449
86.01133, 1.159196
86.26349, 1.166951
86.46486, 1.164382
86.67518, 1.172618
86.87859, 1.170022
87.09535, 1.178127
87.30504, 1.186284
87.52452, 1.18347
87.741, 1.196882
87.95955, 1.199446
88.17667, 1.21275
88.42698, 1.209501
88.64606, 1.21735
88.86726, 1.214481
89.09988, 1.211479
89.31715, 1.208688
89.54043, 1.205833
89.76304, 1.208277
89.99091, 1.205378
90.26814, 1.201871
90.49767, 1.198982
90.71701, 1.196235
90.92226, 1.2041
91.13818, 1.201396
91.34379, 1.204022
91.56076, 1.201316
91.77766, 1.198624
91.99638, 1.195921
92.21414, 1.193242
92.42285, 1.190686
92.64366, 1.187993
92.85911, 1.185378
93.07545, 1.182763
93.28217, 1.200625
93.52307, 1.207839
93.75987, 1.204943
93.98206, 1.202238
94.20425, 1.199545
94.42406, 1.206951
94.65497, 1.204155
94.88636, 1.201365
95.12146, 1.203538
95.34265, 1.210851
95.55968, 1.208238
95.77883, 1.20561
95.99444, 1.203037
96.21586, 1.200405
96.43584, 1.20766
96.65756, 1.205026
96.87668, 1.21225
97.0984, 1.209617
97.3477, 1.206671
97.57355, 1.204014
97.7817, 1.201576
97.99634, 1.199072
98.20095, 1.196694
98.41483, 1.194219
98.61884, 1.201519
98.83361, 1.199034
99.10052, 1.195959
99.30182, 1.193651
99.57162, 1.190572
99.83228, 1.187611
100.0872, 1.18473
100.335, 1.181943
100.5753, 1.179254
100.8167, 1.176563
101.0567, 1.192758
101.2979, 1.190052
101.5376, 1.196761
101.7753, 1.194096
102.0101, 1.191476
102.2517, 1.188793
102.488, 1.186179
102.7257, 1.183561
102.9641, 1.180948
103.1869, 1.206246
103.4199, 1.212877
103.6459, 1.210354
103.8798, 1.207753
104.125, 1.20504
104.367, 1.202374
104.6013, 1.199803
104.8372, 1.197227
105.0652, 1.194746
105.2892, 1.228588
105.5236, 1.225982
105.7473, 1.223506
105.9807, 1.220933
106.2015, 1.218509
106.4277, 1.216035
106.6616, 1.213488
106.8862, 1.219989
107.1201, 1.226363
107.3426, 1.223935
107.5596, 1.230459
107.78, 1.228055
107.9983, 1.234532
108.2037, 1.232291
108.4209, 1.238749
108.6394, 1.245166
108.8411, 1.242961
109.0425, 1.240765
109.2927, 1.246799
109.5378, 1.261593
109.7385, 1.263744
109.9828, 1.269755
110.207, 1.267285
110.4608, 1.264498
110.7035, 1.274811
110.918, 1.276765
111.1197, 1.274547
111.3626, 1.271886
111.6151, 1.277707
111.8223, 1.284001
112.0741, 1.28124
112.3201, 1.291339
112.5605, 1.288698
112.7622, 1.286491
112.964, 1.28429
113.1651, 1.290567
113.3779, 1.288247
113.5788, 1.286064
113.7796, 1.29231
113.9831, 1.290099
114.1837, 1.287928
114.4395, 1.285169
114.6818, 1.282567
114.8828, 1.280417
115.1238, 1.277848
115.3746, 1.275186
115.5749, 1.273067
115.8208, 1.270476
116.0225, 1.268359
116.2242, 1.266248
116.4377, 1.264023
116.6818, 1.261487
116.9252, 1.258969
117.1761, 1.264568
117.3763, 1.262499
117.6198, 1.259992
117.8207, 1.257931
118.0352, 1.255739
118.2808, 1.253236
118.5344, 1.250664
118.7794, 1.248189
119.0217, 1.253812
119.2241, 1.25982
119.4257, 1.257779
119.6786, 1.263249
119.9168, 1.260839
120.1594, 1.258395
120.398, 1.256001
120.6387, 1.253595
120.8388, 1.251601
121.0809, 1.249198
121.325, 1.246784
121.5755, 1.244317
121.8176, 1.249827
122.059, 1.263193
122.2987, 1.260814
122.5412, 1.258417
122.7842, 1.259936
123.0333, 1.257485
123.2346, 1.255512
123.4639, 1.253271
123.7185, 1.250791
123.9604, 1.260076
124.1612, 1.258118
124.4058, 1.255739
124.6593, 1.257141
124.9028, 1.254785
125.1155, 1.252733
125.3612, 1.250372
125.6059, 1.255686
125.819, 1.253641
126.0198, 1.259351
126.2224, 1.257407
126.4563, 1.25517
126.6752, 1.253083
126.907, 1.250881
127.1357, 1.248716
127.3433, 1.246758
127.5628, 1.244693
127.7827, 1.242632
128.0008, 1.240594
128.2216, 1.238538
128.4437, 1.240223
128.6665, 1.241897
128.8996, 1.239735
129.1243, 1.237658
129.3494, 1.235584
129.5839, 1.233431
129.8079, 1.2388
130.0474, 1.236603
130.2861, 1.234421
130.5307, 1.235883
130.7769, 1.233641
131.0338, 1.231312
131.2796, 1.240098
131.5396, 1.237736
131.7403, 1.239576
131.9413, 1.237757
132.1427, 1.239585
132.4323, 1.236973
132.6552, 1.234969
132.857, 1.233162
133.0619, 1.231332
133.2759, 1.229426
133.5033, 1.227408
133.7451, 1.225268
133.9614, 1.223361
134.2094, 1.224773
134.4366, 1.226364
134.6603, 1.224399
134.8795, 1.222481
135.0959, 1.220592
135.3026, 1.218794
135.5221, 1.21689
135.7408, 1.214999
135.9891, 1.21286
136.2189, 1.210886
136.4414, 1.208981
136.6604, 1.207112
136.8815, 1.205231
137.1004, 1.206893
137.3183, 1.205046
137.5353, 1.203211
137.7548, 1.201361
137.9616, 1.199623
138.1792, 1.197799
138.3971, 1.195979
138.6168, 1.197632
138.8651, 1.195565
139.0959, 1.193649
139.3206, 1.191791
139.5424, 1.189963
139.759, 1.188182
139.9769, 1.186396
140.1827, 1.184714
140.4035, 1.182915
140.6228, 1.184567
140.8422, 1.182786
141.0615, 1.181009
141.2831, 1.17922
141.5139, 1.177363
141.7366, 1.175576
141.9581, 1.173804
142.1818, 1.17202
142.4021, 1.183837
142.6255, 1.182045
142.8426, 1.180309
143.0576, 1.178595
143.2765, 1.176855
143.4931, 1.175139
143.7016, 1.173491
143.9175, 1.17179
144.1335, 1.170093
144.3444, 1.16844
144.5572, 1.18015
144.7713, 1.178463
145.0554, 1.179564
145.2768, 1.184481
145.4784, 1.189539
145.6823, 1.18793
145.8933, 1.189582
146.1562, 1.187513
146.4146, 1.185487
146.6682, 1.183505
146.9101, 1.18162
147.1512, 1.21261
147.3895, 1.210713
147.6296, 1.208809
147.8674, 1.206928
148.1001, 1.205094
148.3224, 1.203346
148.5484, 1.201576
148.7823, 1.199748
149.0093, 1.19798
149.2423, 1.19617
149.4671, 1.194429
149.7003, 1.192628
149.9238, 1.190908
150.1454, 1.189207
150.3799, 1.187412
150.5993, 1.185738
150.8194, 1.184063
151.0372, 1.18241
151.2464, 1.180827
151.4678, 1.179156
151.6868, 1.177509
151.9071, 1.175855
152.1272, 1.174208
152.3441, 1.17259
152.5841, 1.170803
152.8044, 1.169169
153.0195, 1.167578
153.2216, 1.166086
153.423, 1.164603
153.6637, 1.162837
153.8768, 1.161277
154.0784, 1.159806
154.2847, 1.158303
154.5001, 1.156739
154.7057, 1.15525
154.9242, 1.153671
155.1441, 1.152087
155.3613, 1.150527
155.5782, 1.148973
155.7856, 1.147491
156.0006, 1.145958
156.2463, 1.144212
156.4588, 1.142707
156.7071, 1.140952
156.9232, 1.139429
157.1354, 1.137938
157.3404, 1.136501
157.5844, 1.134795
157.7995, 1.133296
158.0048, 1.138003
158.2241, 1.136474
158.4462, 1.13493
158.6652, 1.133411
158.8976, 1.131804
159.1188, 1.130279
159.3255, 1.128857
159.5509, 1.127311
159.7653, 1.125844
159.9803, 1.124376
160.1997, 1.128937
160.4049, 1.127536
160.622, 1.126058
160.8388, 1.124586
161.0436, 1.123199
161.2752, 1.121635
161.4825, 1.120238
161.6978, 1.118791
161.9033, 1.117414
162.1181, 1.115977
162.3217, 1.114619
162.5268, 1.113255
162.7406, 1.111836
162.945, 1.110483
163.1576, 1.109079
163.3629, 1.107726
163.5988, 1.106176
163.8264, 1.104685
164.0383, 1.106258
164.2426, 1.104923
164.4461, 1.103596
164.6543, 1.102242
164.8993, 1.100652
165.1457, 1.099058
165.3615, 1.097666
165.5622, 1.096374
165.7842, 1.094949
165.9956, 1.093595
166.1968, 1.09231
166.4013, 1.091007
166.6055, 1.089708
166.8187, 1.088357
167.0241, 1.087057
167.2383, 1.085705
167.4427, 1.084418
167.6428, 1.083161
167.8439, 1.081901
168.0972, 1.080318
168.3011, 1.081932
168.5042, 1.080666
168.719, 1.079329
168.9399, 1.077959
169.1587, 1.076604
169.3769, 1.080992
169.585, 1.079703
169.7997, 1.078377
170.0183, 1.088457
170.2367, 1.087101
170.447, 1.091498
170.6647, 1.090145
170.8848, 1.088781
171.107, 1.090246
171.3395, 1.088809
171.5638, 1.087426
171.7851, 1.086065
172.0195, 1.087451
172.243, 1.08608
172.478, 1.084641
172.7034, 1.083266
172.9458, 1.08179
173.1918, 1.088714
173.4284, 1.087271
173.6664, 1.085823
173.9076, 1.084359
174.1509, 1.082886
174.3914, 1.081434
174.6373, 1.079954
174.8939, 1.078413
175.1375, 1.076955
175.394, 1.075424
175.6383, 1.073969
175.8935, 1.072454
176.1417, 1.070985
176.4011, 1.069453
176.6046, 1.068255
176.8368, 1.077889
177.0413, 1.076679
177.2638, 1.075364
177.4818, 1.07408
177.7057, 1.072764
177.9668, 1.071233
178.2036, 1.069848
178.436, 1.071218
178.6672, 1.06987
178.9054, 1.068484
179.1424, 1.072539
179.3926, 1.071084
179.6338, 1.072393
179.8738, 1.071001
180.1121, 1.069622
180.3503, 1.068248
180.5909, 1.066863
180.8257, 1.065515
181.0625, 1.064158
181.3028, 1.062786
181.5416, 1.061425
181.7706, 1.060124
182.0073, 1.058782
182.2437, 1.068126
182.4785, 1.066789
182.7037, 1.065509
182.9414, 1.064162
183.1812, 1.062805
183.4075, 1.061529
183.6452, 1.065492
183.879, 1.064173
184.1066, 1.062893
184.3416, 1.066855
184.5677, 1.065583
184.8055, 1.064247
185.0417, 1.068187
185.2682, 1.066915
185.5028, 1.065601
185.7539, 1.064198
185.9842, 1.062915
186.2169, 1.061622
186.4359, 1.060407
186.658, 1.059178
186.8785, 1.057961
187.112, 1.06188
187.3411, 1.060616
187.5611, 1.059404
187.7854, 1.058171
188.0213, 1.059468
188.2468, 1.058232
188.4873, 1.056917
188.723, 1.055631
188.9786, 1.05424
189.2128, 1.052969
189.4428, 1.051723
189.6626, 1.050535
189.8828, 1.049349
190.1032, 1.048163
190.3251, 1.046973
190.5596, 1.045717
190.787, 1.044502
191.0194, 1.043264
191.2421, 1.04208
191.461, 1.040919
191.6852, 1.039733
191.9034, 1.03858
192.125, 1.037413
192.3436, 1.041331
192.5627, 1.040176
192.7803, 1.039032
192.9949, 1.037905
193.2004, 1.036829
193.4043, 1.035764
193.6079, 1.034702
193.8193, 1.033602
194.0197, 1.032561
194.28, 1.031212
194.5389, 1.029874
194.7959, 1.02855
195.0128, 1.027434
195.2171, 1.026386
195.4734, 1.025074
195.7336, 1.023745
